(module Standoff_M3_Back locked (layer F.Cu) (tedit 5BD10F3E)
  (descr "M3 Standoff, Male/Female, 6mm")
  (tags "M3 Standoff, Male/Female, 6mm")
  (attr virtual)
  (fp_text reference REF** (at 0 -4.2) (layer Cmts.User)
    (effects (font (size 1 1) (thickness 0.15)))
  )
  (fp_text value Standoff_M3_Back (at 0 4.2) (layer Cmts.User) hide
    (effects (font (size 1 1) (thickness 0.15)))
  )
  (fp_line (start -3 1.73205) (end -3 -1.732051) (layer F.CrtYd) (width 0.1))
  (fp_line (start -3 -1.73205) (end 0 -3.5) (layer F.CrtYd) (width 0.1))
  (fp_line (start 3 1.73205) (end 3 -1.732051) (layer F.CrtYd) (width 0.1))
  (fp_line (start 3 -1.732051) (end 0 -3.500001) (layer F.CrtYd) (width 0.1))
  (fp_line (start -3 1.73205) (end 0 3.5) (layer F.CrtYd) (width 0.1))
  (fp_line (start 3 1.73205) (end 0 3.5) (layer F.CrtYd) (width 0.1))
  (model "${KIPRJMOD}/../Footprints.3dshapes/RAF M2141-3005-AL.stp"
    (at (xyz 0 0 0))
    (scale (xyz 1 1 1))
    (rotate (xyz 0 -90 0))
  )
)
